Live Session 2: Getting data from unusual sources
…
  "2.4 .4918 .4920 .4922 .4925 .4927 .4929 .4931 .4932 .4934 .4936",
  "2.5 .4938 .4940 .4941 .4943 .4945 .4946 .4948 .4949 .4951 .4952",
  "2.6 .4953 .4955 .4956 .4957 .4959 .4960 .4961 .4962 .4963 .4964",
  "2.7 .4965 .4966 .4967 .4968 .4969 .4970 .4971 .4972 .4973 .4974",
  "2.8 .4974 .4975 .4976 .4977 .4977 .4978 .4979 .4979 .4980 .4981",
  "2.9 .4981 .4982 .4982 .4983 .4984 .4984 .4985 .4985 .4986 .4986",
  "3.0 .4987 .4987 .4987 .4988 .4988 .4989 .4989 .4989 .4990 .4990",
  "3.1 .4990 .4991 .4991 .4991 .4992 .4992 .4992 .4992 .4993 .4993",
  "3.2 .4993 .4993 .4994 .4994 .4994 .4994 .4994 .4995 .4995 .4995",
  "3.3 .4995 .4995 .4995 .4996 .4996 .4996 .4996 .4996 .4996 .4997",
  "3.4 .4997 .4997 .4997 .4997 .4997 .4997 .4997 .4997 .4997 .4998",
  "3.5 .4998 .4998 .4998 .4998 .4998 .4998 .4998 .4998 .4998 .4998"
  )

# A tibble: 36 × 1
   z..00..01..02..03..04..05..06..07..08..09                      
   <chr>                                                          
 1 0.0 .0000 .0040 .0080 .0120 .0160 .0199 .0239 .0279 .0319 .0359
 2 0.1 .0398 .0438 .0478 .0517 .0557 .0596 .0636 .0675 .0714 .0753
 3 0.2 .0793 .0832 .0871 .0910 .0948 .0987 .1026 .1064 .1103 .1141
 4 0.3 .1179 .1217 .1255 .1293 .1331 .1368 .1406 .1443 .1480 .1517
 5 0.4 .1554 .1591 .1628 .1664 .1700 .1736 .1772 .1808 .1844 .1879
 6 0.5 .1915 .1950 .1985 .2019 .2054 .2088 .2123 .2157 .2190 .2224
 7 0.6 .2257 .2291 .2324 .2357 .2389 .2422 .2454 .2486 .2517 .2549
 8 0.7 .2580 .2611 .2642 .2673 .2704 .2734 .2764 .2794 .2823 .2852
 9 0.8 .2881 .2910 .2939 .2967 .2995 .3023 .3051 .3078 .3106 .3133
10 0.9 .3159 .3186 .3212 .3238 .3264 .3289 .3315 .3340 .3365 .3389
# ℹ 26 more rows
…
You can install the package from CRAN

install.packages("googlesheets4")

We can then read the gapminder dataset as follows.

gapminder_url <- "https://docs.google.com/spreadsheets/d/1U6Cf_qEOhiR9AZqTqS3mbMF3zt2db48ZP5v3rkrAEJY/edit#gid=780868077"
googlesheets4::read_sheet(gapminder_url)

✔ Reading from "gapminder".

✔ Range 'Africa'.

# A tibble: 624 × 6
   country continent  year lifeExp      pop gdpPercap
   <chr>   <chr>     <dbl>   <dbl>    <dbl>     <dbl>
 1 Algeria Africa     1952    43.1  9279525     2449.
 2 Algeria Africa     1957    45.7 10270856     3014.
 3 Algeria Africa     1962    48.3 11000948     2551.
 4 Algeria Africa     1967    51.4 12760499     3247.
 5 Algeria Africa     1972    54.5 14760787     4183.
 6 Algeria Africa     1977    58.0 17152804     4910.
 7 Algeria Africa     1982    61.4 20033753     5745.
 8 Algeria Africa     1987    65.8 23254956     5681.
 9 Algeria Africa     1992    67.7 26298373     5023.
10 Algeria Africa     1997    69.2 29072015     4797.
# ℹ 614 more rows
…
Tasks

Use {googlesheets4} to load a copy of our earlier example data set into R from the address provided.

https://docs.google.com/spreadsheets/d/1Xk7HX-EihNMCRaG1bsltAgkZKds_pz1tKIcw7pYEmEU/edit?usp=sharing

example_data_url <- "https://docs.google.com/spreadsheets/d/1Xk7HX-EihNMCRaG1bsltAgkZKds_pz1tKIcw7pYEmEU/edit?usp=sharing"
googlesheets4::read_sheet(example_data_url)

✔ Reading from "example-table".

✔ Range 'plain text version'.

# A tibble: 30 × 3
     age gender height
   <dbl> <chr>   <dbl>
 1    45 Male      161
 2    97 Female    157
 3    39 Female    150
 4    26 Female    150
 5    22 Male      159
 6    55 Female    147
 7    33 Female    155
 8    21 Male      165
 9    87 Male      152
10    96 Male      164
# ℹ 20 more rows
…
  age height
1  45    161
2  97    157
3  39    150

Read the second sheet, which has cell formatting. Has this caused any problems? How can you specify which sheet (tab) you want to read?

googlesheets4::read_sheet(example_data_url, sheet = 2)

✔ Reading from "example-table".

✔ Range ''with formatting''.

# A tibble: 30 × 3
     age gender height
   <dbl> <chr>   <dbl>
 1    45 Male      161
 2    97 Female    157
 3    39 Female    150
 4    26 Female    150
 5    22 Male      159
 6    55 Female    147
 7    33 Female    155
 8    21 Male      165
 9    87 Male      152
10    96 Male      164
# ℹ 20 more rows
…
